…
* * *

## Lab report

## Exercises


```r
newcomb
```

```
## # A tibble: 66 x 2
##     trial  time
##    <fctr> <int>
##  1      1    28
##  2      2   -44
##  3      3    29
##  4      4    30
##  5      5    24
##  6      6    28
##  7      7    37
##  8      8    32
##  9      9    36
## 10     10    27
## # ... with 56 more rows
```
…
The center is a little above time 25, the shape apperas to be a bell curve with two extreme outliers below 0. The data is spread out due to the two outliers but with out the outliers the spread is more narrow.

#### Exercise 2


```r
newcomb_filter <- filter(newcomb, time > 0)
newcomb_filter
```

```
## # A tibble: 64 x 2
##     trial  time
##    <fctr> <int>
##  1      1    28
##  2      3    29
##  3      4    30
##  4      5    24
##  5      6    28
##  6      7    37
##  7      8    32
##  8      9    36
##  9     10    27
## 10     11    26
## # ... with 54 more rows
```
…
#### Exercise 10

Unfiltered bootstrap


```r
ebootstrap_mean <- newcomb %>%
  specify(response = time)%>%
  generate(reps = 1000, type = "bootstrap")%>%
  calculate(stat = "mean")
ebootstrap_mean
```

```
## # A tibble: 1,000 x 2
##    replicate     stat
##        <int>    <dbl>
##  1         1 25.89394
##  2         2 23.42424
##  3         3 26.69697
##  4         4 26.09091
##  5         5 27.92424
##  6         6 26.56061
##  7         7 26.01515
##  8         8 27.71212
##  9         9 26.87879
## 10        10 25.28788
## # ... with 990 more rows
```
…
Filtered bootstrap


```r
ebootstrap_mean_filtered <- newcomb_filter %>%
  specify(response = time)%>%
  generate(reps = 1000, type = "bootstrap")%>%
  calculate(stat = "mean")
ebootstrap_mean_filtered
```

```
## # A tibble: 1,000 x 2
##    replicate     stat
##        <int>    <dbl>
##  1         1 27.92188
##  2         2 27.65625
##  3         3 27.10938
##  4         4 27.71875
##  5         5 27.65625
##  6         6 28.46875
##  7         7 27.53125
##  8         8 27.93750
##  9         9 27.84375
## 10        10 28.37500
## # ... with 990 more rows
```
…
